## Interface: 110100
## Title: MDTGuide
## Notes: Guide mode for Mythic Dungeon Tools.
## Notes-deDE: Guide-Modus für Mythic Dungeon Tools.
## Version: @project-version@
## OptionalDeps: MythicDungeonTools
## SavedVariables: MDTGuideDB, MDTGuideActive, MDTGuideOptions

Data.lua
Util.lua
Route.lua
Main.lua

#@do-not-package@
## Version: 0-dev0
#@end-do-not-package@
